{
    "results": [
      {
        "id": 1365461,
        "adult": false
      },
      {
        "id": 1358748,
        "adult": false
      },
      {
        "id": 249623,
        "adult": true
      },
      {
        "id": 31243,
        "adult": false
      },
      {
        "id": 1018376,
        "adult": false
      },
      {
        "id": 915513,
        "adult": false
      },
      {
        "id": 915334,
        "adult": false
      },
      {
        "id": 942510,
        "adult": false
      },
      {
        "id": 1115282,
        "adult": false
      },
      {
        "id": 950741,
        "adult": false
      },
      {
        "id": 1300739,
        "adult": false
      },
      {
        "id": 1340919,
        "adult": false
      },
      {
        "id": 1317907,
        "adult": false
      },
      {
        "id": 1083968,
        "adult": false
      },
      {
        "id": 1161751,
        "adult": false
      },
      {
        "id": 1364625,
        "adult": true
      },
      {
        "id": 1365009,
        "adult": false
      },
      {
        "id": 1258916,
        "adult": false
      },
      {
        "id": 1365083,
        "adult": false
      },
      {
        "id": 1365153,
        "adult": false
      },
      {
        "id": 1021954,
        "adult": false
      },
      {
        "id": 1099761,
        "adult": false
      },
      {
        "id": 1244112,
        "adult": false
      },
      {
        "id": 1247653,
        "adult": false
      },
      {
        "id": 1270192,
        "adult": false
      },
      {
        "id": 1277251,
        "adult": false
      },
      {
        "id": 1275374,
        "adult": false
      },
      {
        "id": 1283111,
        "adult": false
      },
      {
        "id": 1291538,
        "adult": false
      },
      {
        "id": 1306275,
        "adult": false
      },
      {
        "id": 1338260,
        "adult": false
      },
      {
        "id": 1339407,
        "adult": false
      },
      {
        "id": 1339351,
        "adult": false
      },
      {
        "id": 1339365,
        "adult": false
      },
      {
        "id": 1342111,
        "adult": false
      },
      {
        "id": 1351087,
        "adult": false
      },
      {
        "id": 1351588,
        "adult": false
      },
      {
        "id": 1352060,
        "adult": false
      },
      {
        "id": 1352706,
        "adult": false
      },
      {
        "id": 1357422,
        "adult": false
      },
      {
        "id": 1358927,
        "adult": false
      },
      {
        "id": 1358945,
        "adult": false
      },
      {
        "id": 1358950,
        "adult": false
      },
      {
        "id": 1358954,
        "adult": false
      },
      {
        "id": 1358957,
        "adult": false
      },
      {
        "id": 1358961,
        "adult": false
      },
      {
        "id": 1358967,
        "adult": false
      },
      {
        "id": 1359613,
        "adult": false
      },
      {
        "id": 1360469,
        "adult": false
      },
      {
        "id": 1361295,
        "adult": false
      },
      {
        "id": 1362003,
        "adult": false
      },
      {
        "id": 1362525,
        "adult": false
      },
      {
        "id": 1362764,
        "adult": false
      },
      {
        "id": 1362766,
        "adult": false
      },
      {
        "id": 1362770,
        "adult": false
      },
      {
        "id": 1362771,
        "adult": false
      },
      {
        "id": 1362916,
        "adult": false
      },
      {
        "id": 1363250,
        "adult": false
      },
      {
        "id": 1363648,
        "adult": false
      },
      {
        "id": 1363679,
        "adult": false
      },
      {
        "id": 1100998,
        "adult": false
      },
      {
        "id": 1253752,
        "adult": false
      },
      {
        "id": 1158986,
        "adult": false
      },
      {
        "id": 1159813,
        "adult": false
      },
      {
        "id": 1168197,
        "adult": false
      },
      {
        "id": 1300738,
        "adult": false
      },
      {
        "id": 1327684,
        "adult": false
      },
      {
        "id": 1322456,
        "adult": false
      },
      {
        "id": 1339219,
        "adult": false
      },
      {
        "id": 1339594,
        "adult": false
      },
      {
        "id": 1339592,
        "adult": false
      },
      {
        "id": 1340312,
        "adult": false
      },
      {
        "id": 1340315,
        "adult": false
      },
      {
        "id": 1340326,
        "adult": false
      },
      {
        "id": 1340327,
        "adult": false
      },
      {
        "id": 1351024,
        "adult": false
      },
      {
        "id": 1351027,
        "adult": false
      },
      {
        "id": 1351030,
        "adult": false
      },
      {
        "id": 1351040,
        "adult": false
      },
      {
        "id": 1351076,
        "adult": false
      },
      {
        "id": 1351077,
        "adult": false
      },
      {
        "id": 1351079,
        "adult": false
      },
      {
        "id": 1351082,
        "adult": false
      },
      {
        "id": 1351086,
        "adult": false
      },
      {
        "id": 1351089,
        "adult": false
      },
      {
        "id": 1351090,
        "adult": false
      },
      {
        "id": 1355324,
        "adult": false
      },
      {
        "id": 1355326,
        "adult": false
      },
      {
        "id": 1360610,
        "adult": false
      },
      {
        "id": 1209736,
        "adult": false
      },
      {
        "id": 1270690,
        "adult": false
      },
      {
        "id": 1364833,
        "adult": false
      },
      {
        "id": 1364841,
        "adult": false
      },
      {
        "id": 1365072,
        "adult": false
      },
      {
        "id": 1365076,
        "adult": true
      },
      {
        "id": 1364839,
        "adult": false
      },
      {
        "id": 1364939,
        "adult": false
      },
      {
        "id": 1359508,
        "adult": false
      },
      {
        "id": 1365454,
        "adult": false
      },
      {
        "id": 1364864,
        "adult": false
      }
    ],
    "page": 1,
    "total_pages": 19,
    "total_results": 1896
  }